{
  "extends": "../../tslint.json",
  "rules": {
    "directive-selector": [
      true,
      "attribute",
      "ngxWebAppCommons",
      "camelCase"
    ],
    "component-selector": [
      true,
      [ "element", "attribute" ],
      "commons",
      "kebab-case"
    ]
  }
}
