{
	"$schema": "../../node_modules/ng-packagr/ng-package.schema.json",
	"dest": "../../dist/ngx-webappcommons-feed",
	"lib": {
		"entryFile": "src/public-api.ts",
		"umdModuleIds": {
			"ngx-angularcommons-core": "ngx-angularcommons-core",
			"ngx-angularcommons-pipe": "ngx-angularcommons-pipe",
			"ngx-webappcommons-app": "ngx-webappcommons-app"
		}
	}
}